<?xml version="1.0" encoding="UTF-8"?>
<svg width="200px" height="50px" viewBox="0 0 200 50" version="1.1" xmlns="http://www.w3.org/2000/svg" xmlns:xlink="http://www.w3.org/1999/xlink">
    <title>brand</title>
    <g id="brand" stroke="none" stroke-width="1" fill="none" fill-rule="evenodd">
        <rect id="viewbox" x="0" y="0" width="200" height="50"></rect>
        <g id="Group" transform="translate(1.000000, 13.000000)" fill-rule="nonzero">
            <path d="M39.4486073,0.0113925466 C46.6424863,0.0113925466 52.4950751,5.61249456 52.4950751,12.4970886 C52.4950751,19.3818044 46.6424863,24.9829064 39.4486073,24.9829064 C32.2547283,24.9829064 26.4020177,19.3818044 26.4020177,12.4970886 C26.4020177,5.61249456 32.2547283,0.0113925466 39.4486073,0.0113925466 Z M13.0464678,0.0062223886 C15.301667,0.003822623 17.5214047,0.567472503 19.5022435,1.64552929 C21.3232956,2.63836297 22.8777307,4.05420086 24.0354274,5.772446 L24.1624211,5.96460047 L24.255856,6.1098264 L21.1487192,8.78522253 L21.0357206,8.57769313 C19.4191765,5.77771431 16.4409936,4.04960421 13.2164045,4.02834866 L13.0464678,4.02880942 C8.07067346,4.02880942 4.02253103,7.82538383 4.02253103,12.4919744 C4.02253103,17.1118991 7.99011542,20.8792005 12.8974754,20.9540845 L13.0464678,20.9552206 C16.2907828,20.9953288 19.3059478,19.3038099 20.9646568,16.5250937 L21.0492366,16.3804008 L21.1681205,16.1661337 L24.2707115,18.8487546 L24.1778042,18.9938993 C23.0096665,20.805803 21.4068608,22.2967351 19.5153171,23.3309513 C17.5313566,24.4139381 15.3067673,24.9802605 13.0464678,24.9777682 C5.85258884,24.9777682 0,19.3766496 0,12.4919744 C0,5.6073804 5.85258884,0.0062223886 13.0464678,0.0062223886 Z M59.345797,0.637035849 C61.6859823,-0.431922642 64.42686,-0.0651911072 66.4019614,1.56965591 L66.5172518,1.66728477 L72.7949654,7.10558599 C73.7755729,7.94776453 75.2111927,7.97115838 76.2170787,7.17576754 L76.3022244,7.10558599 L78.6778333,5.0476639 L78.6778333,10.3579893 C76.1897481,12.2876277 72.7038552,12.2330137 70.2794591,10.2453868 L70.1610914,10.1460764 L63.8833778,4.70785633 C63.0909131,4.02137928 61.9707529,3.86044932 61.0170808,4.29606427 C60.0951977,4.71715872 59.4927922,5.62082383 59.4536651,6.62766283 L59.4516368,6.73217107 L59.4516368,24.5321296 L55.4291017,24.5321296 L55.4291017,6.73217107 C55.4291017,4.10895583 56.9597258,1.72695431 59.345797,0.637035849 Z M89.6458453,7.61287828 L93.6685793,11.0965959 L93.6685793,24.5322271 L89.6458453,24.5322271 L89.6458453,7.61287828 Z M39.4486073,4.03392358 C34.4728129,4.03392358 30.4246705,7.83045741 30.4246705,12.4970886 C30.4246705,17.1637198 34.4728129,20.9603348 39.4486073,20.9603348 C44.4244057,20.9603348 48.4724629,17.1636792 48.4724629,12.4970886 C48.4724629,7.830498 44.4244017,4.03392358 39.4486073,4.03392358 Z" id="Shape" fill="#425563"></path>
            <path d="M134.316034,0.00271915242 L134.531406,0.0010424592 C137.404941,-0.0362841952 140.20133,0.930887475 142.437777,2.73557614 C144.381573,4.33588441 145.803971,6.47950898 146.523139,8.89241696 C146.934934,10.0817533 147.124499,11.3366787 147.082377,12.5945823 C147.075661,13.0658163 146.708864,13.4487249 146.245792,13.4824432 L146.182073,13.4848522 L129.881749,13.4848522 L129.881749,9.99468098 L142.651963,9.99468098 C142.171585,8.28507924 141.144446,6.7798833 139.727637,5.70929832 C138.277485,4.63498274 136.52595,4.04815882 134.724589,4.0301059 L134.531406,4.03035178 C129.560694,4.03035178 125.516724,7.82623619 125.516724,12.4918932 C125.516724,17.1575503 129.560694,20.9533535 134.531406,20.9533535 C137.978762,20.9533535 141.251343,19.3309794 142.920777,16.8075376 L143.007154,16.6738968 L143.130705,16.4783004 L146.209755,19.1405459 L146.106903,19.2876389 C144.837403,21.0714473 143.1389,22.5066232 141.168248,23.4606318 C139.100834,24.4670623 136.830771,24.9877407 134.531406,24.9829726 C127.338786,24.9829726 121.48709,19.3794502 121.48709,12.4918932 C121.48709,5.67329219 127.222337,0.113238369 134.316034,0.00271915242 L134.316034,0.00271915242 Z M162.579768,0.00271915242 L162.795141,0.0010424592 C165.668667,-0.0363044283 168.465049,0.930870087 170.701471,2.73557614 C172.645295,4.3358606 174.067702,6.47949361 174.786841,8.89241696 C175.198634,10.0817553 175.388223,11.3366758 175.346152,12.5945823 C175.339461,13.0658238 174.972656,13.4487454 174.509576,13.4824458 L174.445857,13.4848522 L158.145484,13.4848522 L158.145484,9.99468098 L170.915738,9.99468098 C170.435379,8.28507067 169.408236,6.77986931 167.991412,5.70929832 C166.541255,4.63496339 164.789702,4.04813718 162.988325,4.03010373 L162.795141,4.03035178 C157.824379,4.03035178 153.780458,7.82623619 153.780458,12.4918932 C153.780458,17.1575503 157.824379,20.9533535 162.795141,20.9533535 C166.242448,20.9533535 169.515037,19.3309794 171.184509,16.8075376 L171.270888,16.6738968 L171.394399,16.4783004 L174.473449,19.1405459 L174.370597,19.2876389 C173.101167,21.0714803 171.402681,22.5066657 169.432023,23.4606318 C167.364598,24.4670712 165.094519,24.9877499 162.795141,24.9829729 C155.60248,24.9829729 149.750905,19.3794502 149.750905,12.4918932 C149.750905,5.67329219 155.486033,0.113238369 162.579768,0.00271915242 L162.579768,0.00271915242 Z M182.299422,0.449262127 L182.299422,4.63881516 L190.366321,4.63881516 L190.366321,8.11774336 L182.299422,8.11774336 L182.299422,15.2373858 C182.321506,16.7609134 182.996557,18.2016542 184.153102,19.1936357 C186.860821,21.5283986 190.86993,21.5283986 193.577648,19.1936357 C194.273101,18.5797156 194.805221,17.8039343 195.127692,16.9360363 L195.185687,16.7722429 L195.27835,16.4870676 L198.498973,19.2716064 L198.426603,19.4111093 C197.54612,21.0808269 196.214756,22.4699604 194.58392,23.4205303 C192.850479,24.4382817 190.875478,24.9717203 188.865355,24.9652091 C183.086441,24.9652091 178.374131,20.688129 178.280463,15.3979995 L178.279042,15.2373858 L178.279042,0.449262127 L182.299422,0.449262127 Z M84.1843242,0.628586822 C86.5275513,-0.442933363 89.2729802,-0.0737109752 91.2481357,1.56699391 L91.363424,1.66497122 L97.6386617,7.11033485 C98.6190161,7.9526718 100.054622,7.97607004 101.060268,7.1805296 L101.145393,7.11033485 L107.423513,1.67195245 C109.361131,-0.0301134073 112.105842,-0.451263547 114.45971,0.580589875 L114.595068,0.641733164 C116.94958,1.69803545 118.473315,4.02189531 118.511249,6.59363441 L118.511824,24.5367973 L114.48901,24.5367973 L114.48901,6.73675758 C114.489015,5.68832667 113.877247,4.73630632 112.923596,4.30069374 C112.00283,3.88010228 110.92686,4.0156057 110.140473,4.64330847 L110.057346,4.71244284 L103.779389,10.1507441 C101.294545,12.2841361 97.6426602,12.3169575 95.1219078,10.2492083 L95.0045848,10.1507441 L88.7282512,4.70720691 C87.9364789,4.01432849 86.811899,3.85035753 85.8552452,4.28830423 C84.9304799,4.7116527 84.3289231,5.62133345 84.2962294,6.63187483 L84.2948866,6.73675758 L84.2948866,24.5367973 L80.2722686,24.5367973 L80.2722686,6.73675758 C80.2654068,4.10964487 81.7951515,1.72111721 84.1843242,0.628586822 Z" id="Shape" fill="#EF7A00"></path>
        </g>
    </g>
</svg>